nutriverse
…
While this does provide a p-value and confidence intervals for the parameters, these are based on model assumptions that may not hold in real data. Bootstrapping is a popular method for providing confidence intervals and predictions that are more robust to the nature of the data.

Bootstrapping models

We can use the bootstraps() function in the rsample package to sample bootstrap replications. First, we construct 2000 bootstrap replicates of the data, each of which has been randomly sampled with replacement. The resulting object is an rset, which is a data frame with a column of rsplit objects.

An rsplit object has two main components: an analysis data set and an assessment data set, accessible via analysis(rsplit) and assessment(rsplit) respectively. For bootstrap samples, the analysis data set is the bootstrap sample itself, and the assessment data set consists of all the out-of-bag samples.

set.seed(27)
boots <- bootstraps(mtcars, times = 2000, apparent = TRUE)
boots
#> # Bootstrap sampling with apparent sample 
#> # A tibble: 2,001 x 2
#>    splits          id           
#>    <list>          <chr>        
#>  1 <split [32/13]> Bootstrap0001
#>  2 <split [32/10]> Bootstrap0002
#>  3 <split [32/13]> Bootstrap0003
#>  4 <split [32/11]> Bootstrap0004
#>  5 <split [32/9]>  Bootstrap0005
#>  6 <split [32/10]> Bootstrap0006
#>  7 <split [32/11]> Bootstrap0007
#>  8 <split [32/13]> Bootstrap0008
#>  9 <split [32/11]> Bootstrap0009
#> 10 <split [32/11]> Bootstrap0010
#> # … with 1,991 more rows
…
boot_models <-
  boots %>% 
  mutate(model = map(splits, fit_nls_on_bootstrap),
         coef_info = map(model, tidy))

library(tidyr)
boot_coefs <- 
  boot_models %>% 
  unnest(coef_info)

The unnested coefficient information contains a summary of each replication combined in a single data frame:

boot_coefs
#> # A tibble: 4,002 x 8
#>    splits         id           model term  estimate std.error statistic  p.value
#>    <list>         <chr>        <lis> <chr>    <dbl>     <dbl>     <dbl>    <dbl>
#>  1 <split [32/13… Bootstrap00… <nls> k        42.1       4.05     10.4  1.91e-11
#>  2 <split [32/13… Bootstrap00… <nls> b         5.39      1.43      3.78 6.93e- 4
#>  3 <split [32/10… Bootstrap00… <nls> k        49.9       5.66      8.82 7.82e-10
#>  4 <split [32/10… Bootstrap00… <nls> b         3.73      1.92      1.94 6.13e- 2
#>  5 <split [32/13… Bootstrap00… <nls> k        37.8       2.68     14.1  9.01e-15
#>  6 <split [32/13… Bootstrap00… <nls> b         6.73      1.17      5.75 2.78e- 6
#>  7 <split [32/11… Bootstrap00… <nls> k        45.6       4.45     10.2  2.70e-11
#>  8 <split [32/11… Bootstrap00… <nls> b         4.75      1.62      2.93 6.38e- 3
#>  9 <split [32/9]> Bootstrap00… <nls> k        43.6       4.63      9.41 1.85e-10
#> 10 <split [32/9]> Bootstrap00… <nls> b         5.89      1.68      3.51 1.44e- 3
#> # … with 3,992 more rows
…
The rsample package also has functions for 
other types of confidence intervals.

Possible model fits

We can use augment() to visualize the uncertainty in the fitted curve. Since there are so many bootstrap samples, we’ll only show a sample of the model fits in our visualization:

boot_aug <- 
  boot_models %>% 
  sample_n(200) %>% 
  mutate(augmented = map(model, augment)) %>% 
  unnest(augmented)

boot_aug
#> # A tibble: 6,400 x 8
#>    splits         id            model coef_info         mpg    wt .fitted .resid
#>    <list>         <chr>         <lis> <list>          <dbl> <dbl>   <dbl>  <dbl>
#>  1 <split [32/11… Bootstrap1644 <nls> <tibble [2 × 5…  16.4  4.07    15.6  0.829
#>  2 <split [32/11… Bootstrap1644 <nls> <tibble [2 × 5…  19.7  2.77    21.9 -2.21 
#>  3 <split [32/11… Bootstrap1644 <nls> <tibble [2 × 5…  19.2  3.84    16.4  2.84 
#>  4 <split [32/11… Bootstrap1644 <nls> <tibble [2 × 5…  21.4  2.78    21.8 -0.437
#>  5 <split [32/11… Bootstrap1644 <nls> <tibble [2 × 5…  26    2.14    27.8 -1.75 
#>  6 <split [32/11… Bootstrap1644 <nls> <tibble [2 × 5…  33.9  1.84    32.0  1.88 
#>  7 <split [32/11… Bootstrap1644 <nls> <tibble [2 × 5…  32.4  2.2     27.0  5.35 
#>  8 <split [32/11… Bootstrap1644 <nls> <tibble [2 × 5…  30.4  1.62    36.1 -5.70 
#>  9 <split [32/11… Bootstrap1644 <nls> <tibble [2 × 5…  21.5  2.46    24.4 -2.86 
#> 10 <split [32/11… Bootstrap1644 <nls> <tibble [2 × 5…  26    2.14    27.8 -1.75 
#> # … with 6,390 more rows
…
