Nutriverse
…
To get the predictions for this specific value of lambda (aka penalty):

# First, get the processed version of the test set predictors:
test_normalized <- bake(norm_recipe, new_data = ames_test, all_predictors())

test_results <- 
  test_results %>%
  rename(`random forest` = .pred) %>%
  bind_cols(
    predict(glmn_fit, new_data = test_normalized) %>%
      rename(glmnet = .pred)
  )
test_results
#> # A tibble: 731 x 3
#>    Sale_Price `random forest` glmnet
#>         <dbl>           <dbl>  <dbl>
#>  1       5.33            5.22   5.27
#>  2       5.02            5.21   5.17
#>  3       5.27            5.25   5.23
#>  4       5.60            5.51   5.25
#>  5       5.28            5.24   5.25
#>  6       5.17            5.19   5.19
#>  7       5.02            4.97   5.19
#>  8       5.46            5.50   5.49
#>  9       5.44            5.46   5.48
#> 10       5.33            5.50   5.47
#> # … with 721 more rows
…
