nutriverse
…
To get started, the types of resampling methods need to be specified. This isn’t a large data set, so 5 repeats of 10-fold cross validation will be used as the outer resampling method for generating the estimate of overall performance. To tune the model, it would be good to have precise estimates for each of the values of the tuning parameter so let’s use 25 iterations of the bootstrap. This means that there will eventually be 5 * 10 * 25 = 1250 models that are fit to the data per tuning parameter. These models will be discarded once the performance of the model has been quantified.

To create the tibble with the resampling specifications:

library(tidymodels)
results <- nested_cv(train_dat, 
                     outside = vfold_cv(repeats = 5), 
                     inside = bootstraps(times = 25))
results
#> [1] "nested_cv"  "vfold_cv"   "rset"       "tbl_df"     "tbl"       
#> [6] "data.frame"
#> # Nested resampling:
#> #  outer: 10-fold cross-validation repeated 5 times
#> #  inner: Bootstrap sampling
#> # A tibble: 50 x 4
#>    splits          id      id2    inner_resamples  
#>    <named list>    <chr>   <chr>  <named list>     
#>  1 <split [90/10]> Repeat1 Fold01 <tibble [25 × 2]>
#>  2 <split [90/10]> Repeat1 Fold02 <tibble [25 × 2]>
#>  3 <split [90/10]> Repeat1 Fold03 <tibble [25 × 2]>
#>  4 <split [90/10]> Repeat1 Fold04 <tibble [25 × 2]>
#>  5 <split [90/10]> Repeat1 Fold05 <tibble [25 × 2]>
#>  6 <split [90/10]> Repeat1 Fold06 <tibble [25 × 2]>
#>  7 <split [90/10]> Repeat1 Fold07 <tibble [25 × 2]>
#>  8 <split [90/10]> Repeat1 Fold08 <tibble [25 × 2]>
#>  9 <split [90/10]> Repeat1 Fold09 <tibble [25 × 2]>
#> 10 <split [90/10]> Repeat1 Fold10 <tibble [25 × 2]>
#> # … with 40 more rows

The splitting information for each resample is contained in the split objects. Focusing on the second fold of the first repeat:

results$splits[[2]]
#> <Training/Validation/Total>
#> <90/10/100>

<90/10/100> indicates the number of observations in the analysis set, assessment set, and the original data.

Each element of inner_resamples has its own tibble with the bootstrapping splits.

results$inner_resamples[[5]]
#> # Bootstrap sampling 
#> # A tibble: 25 x 2
#>    splits          id         
#>    <list>          <chr>      
#>  1 <split [90/31]> Bootstrap01
#>  2 <split [90/33]> Bootstrap02
#>  3 <split [90/37]> Bootstrap03
#>  4 <split [90/31]> Bootstrap04
#>  5 <split [90/32]> Bootstrap05
#>  6 <split [90/32]> Bootstrap06
#>  7 <split [90/36]> Bootstrap07
#>  8 <split [90/34]> Bootstrap08
#>  9 <split [90/29]> Bootstrap09
#> 10 <split [90/31]> Bootstrap10
#> # … with 15 more rows
…
