nutriverse
…
Each row is an individual survey response, containing some basic demographic information on the respondent as well as some additional variables. See ?gss for more information on the variables included and their source. Note that this data (and our examples on it) are for demonstration purposes only, and will not necessarily provide accurate estimates unless weighted properly. For these examples, let’s suppose that this data set is a representative sample of a population we want to learn about: American adults.

Specify variables

The specify() function can be used to specify which of the variables in the data set you’re interested in. If you’re only interested in, say, the age of the respondents, you might write:

gss %>%
  specify(response = age)
#> Response: age (numeric)
#> # A tibble: 2,988 x 1
#>      age
#>    <dbl>
#>  1    37
#>  2    29
#>  3    58
#>  4    40
#>  5    39
#>  6    37
#>  7    53
#>  8    41
#>  9    55
#> 10    47
#> # … with 2,978 more rows
…
gss %>%
  specify(response = age) %>%
  class()
#> [1] "infer"      "tbl_df"     "tbl"        "data.frame"

We can see that the infer class has been appended on top of the dataframe classes; this new class stores some extra metadata.

If you’re interested in two variables (age and partyid, for example) you can specify() their relationship in one of two (equivalent) ways:

# as a formula
gss %>%
  specify(age ~ partyid)
#> Response: age (numeric)
#> Explanatory: partyid (factor)
#> # A tibble: 2,963 x 2
#>      age partyid
#>    <dbl> <fct>  
#>  1    37 dem    
#>  2    29 dem    
#>  3    58 ind    
#>  4    40 rep    
#>  5    39 dem    
#>  6    37 dem    
#>  7    53 dem    
#>  8    41 rep    
#>  9    55 ind    
#> 10    47 rep    
#> # … with 2,953 more rows

# with the named arguments
gss %>%
  specify(response = age, explanatory = partyid)
#> Response: age (numeric)
#> Explanatory: partyid (factor)
#> # A tibble: 2,963 x 2
#>      age partyid
#>    <dbl> <fct>  
#>  1    37 dem    
#>  2    29 dem    
#>  3    58 ind    
#>  4    40 rep    
#>  5    39 dem    
#>  6    37 dem    
#>  7    53 dem    
#>  8    41 rep    
#>  9    55 ind    
#> 10    47 rep    
#> # … with 2,953 more rows

If you’re doing inference on one proportion or a difference in proportions, you will need to use the success argument to specify which level of your response variable is a success. For instance, if you’re interested in the proportion of the population with a college degree, you might use the following code:

# specifying for inference on proportions
gss %>%
  specify(response = college, success = "degree")
#> Response: college (factor)
#> # A tibble: 2,990 x 1
#>    college  
#>    <fct>    
#>  1 no degree
#>  2 no degree
#>  3 degree   
#>  4 degree   
#>  5 no degree
#>  6 no degree
#>  7 no degree
#>  8 no degree
#>  9 no degree
#> 10 no degree
#> # … with 2,980 more rows

Declare the hypothesis

The next step in the infer pipeline is often to declare a null hypothesis using hypothesize(). The first step is to supply one of “independence” or “point” to the null argument. If your null hypothesis assumes independence between two variables, then this is all you need to supply to hypothesize():

gss %>%
  specify(college ~ partyid, success = "degree") %>%
  hypothesize(null = "independence")
#> Response: college (factor)
#> Explanatory: partyid (factor)
#> Null Hypothesis: independence
#> # A tibble: 2,967 x 2
#>    college   partyid
#>    <fct>     <fct>  
#>  1 no degree dem    
#>  2 no degree dem    
#>  3 degree    ind    
#>  4 degree    rep    
#>  5 no degree dem    
#>  6 no degree dem    
#>  7 no degree dem    
#>  8 no degree rep    
#>  9 no degree ind    
#> 10 no degree rep    
#> # … with 2,957 more rows

If you’re doing inference on a point estimate, you will also need to provide one of p (the true proportion of successes, between 0 and 1), mu (the true mean), med (the true median), or sigma (the true standard deviation). For instance, if the null hypothesis is that the mean number of hours worked per week in our population is 40, we would write:

gss %>%
  specify(response = hours) %>%
  hypothesize(null = "point", mu = 40)
#> Response: hours (numeric)
#> Null Hypothesis: point
#> # A tibble: 1,756 x 1
#>    hours
#>    <dbl>
#>  1    50
#>  2    60
#>  3    84
#>  4    40
#>  5    50
#>  6    60
#>  7    40
#>  8    20
#>  9    40
#> 10    40
#> # … with 1,746 more rows
…
bootstrap: A bootstrap sample will be drawn for each replicate, where a sample of size equal to the input sample size is drawn (with replacement) from the input sample data.

permute: For each replicate, each input value will be randomly reassigned (without replacement) to a new output value in the sample.

simulate: A value will be sampled from a theoretical distribution with parameters specified in hypothesize() for each replicate. (This option is currently only applicable for testing point estimates.)

Continuing on with our example above, about the average number of hours worked a week, we might write:

gss %>%
  specify(response = hours) %>%
  hypothesize(null = "point", mu = 40) %>%
  generate(reps = 5000, type = "bootstrap")
#> Response: hours (numeric)
#> Null Hypothesis: point
#> # A tibble: 8,780,000 x 2
#> # Groups:   replicate [5,000]
#>    replicate hours
#>        <int> <dbl>
#>  1         1  42.2
#>  2         1  54.2
#>  3         1  29.2
#>  4         1  39.2
#>  5         1  39.2
#>  6         1  54.2
#>  7         1  39.2
#>  8         1  24.2
#>  9         1  42.2
#> 10         1  23.2
#> # … with 8,779,990 more rows

In the above example, we take 5000 bootstrap samples to form our null distribution.

To generate a null distribution for the independence of two variables, we could also randomly reshuffle the pairings of explanatory and response variables to break any existing association. For instance, to generate 5000 replicates that can be used to create a null distribution under the assumption that political party affiliation is not affected by age:

gss %>%
  specify(partyid ~ age) %>%
  hypothesize(null = "independence") %>%
  generate(reps = 5000, type = "permute")
#> Response: partyid (factor)
#> Explanatory: age (numeric)
#> Null Hypothesis: independence
#> # A tibble: 14,815,000 x 3
#> # Groups:   replicate [5,000]
#>    partyid   age replicate
#>    <fct>   <dbl>     <int>
#>  1 dem        37         1
#>  2 dem        29         1
#>  3 rep        58         1
#>  4 rep        40         1
#>  5 other      39         1
#>  6 ind        37         1
#>  7 ind        53         1
#>  8 ind        41         1
#>  9 dem        55         1
#> 10 rep        47         1
#> # … with 14,814,990 more rows

Calculate statistics

Depending on whether you’re carrying out computation-based inference or theory-based inference, you will either supply calculate() with the output of generate() or hypothesize(), respectively. The function, for one, takes in a stat argument, which is currently one of "mean", "median", "sum", "sd", "prop", "count", "diff in means", "diff in medians", "diff in props", "Chisq", "F", "t", "z", "slope", or "correlation". For example, continuing our example above to calculate the null distribution of mean hours worked per week:

gss %>%
  specify(response = hours) %>%
  hypothesize(null = "point", mu = 40) %>%
  generate(reps = 5000, type = "bootstrap") %>%
  calculate(stat = "mean")
#> # A tibble: 5,000 x 2
#>    replicate  stat
#>        <int> <dbl>
#>  1         1  40.1
#>  2         2  39.8
#>  3         3  39.2
#>  4         4  39.9
#>  5         5  40.3
#>  6         6  40.1
#>  7         7  40.2
#>  8         8  40.4
#>  9         9  39.8
#> 10        10  39.9
#> # … with 4,990 more rows

The output of calculate() here shows us the sample statistic (in this case, the mean) for each of our 1000 replicates. If you’re carrying out inference on differences in means, medians, or proportions, or \(t\) and \(z\) statistics, you will need to supply an order argument, giving the order in which the explanatory variables should be subtracted. For instance, to find the difference in mean age of those that have a college degree and those that don’t, we might write:

gss %>%
  specify(age ~ college) %>%
  hypothesize(null = "independence") %>%
  generate(reps = 5000, type = "permute") %>%
  calculate("diff in means", order = c("degree", "no degree"))
#> # A tibble: 5,000 x 2
#>    replicate    stat
#>        <int>   <dbl>
#>  1         1 -0.0914
#>  2         2 -0.0354
#>  3         3  0.112 
#>  4         4 -0.665 
#>  5         5 -1.32  
#>  6         6 -1.01  
#>  7         7 -1.41  
#>  8         8 -0.0506
#>  9         9  0.247 
#> 10        10 -0.214 
#> # … with 4,990 more rows
…
